1,115,277,428,277,428,303,115,303,BREWERY TAP,other
1,113,309,459,309,459,336,113,336,DWNER BY CASTLE BLUE S/B,other
1,202,343,357,343,357,372,202,372,(1035693-T),other
1,129,375,430,375,430,402,129,402,GST NO : 002108047360,other
1,57,406,516,406,516,437,57,437,AVTIVO PLAZA\\LOT B-F-11\\ BLOCK B,address
1,58,441,501,441,501,469,58,469,NO1.JALAN PJU 9/1\\D'SARA AVEVUE,other
1,86,472,474,472,474,502,86,502,BANDAR SRI D'SARA\\ 52000 XL,other
1,157,507,415,507,415,532,157,532,TEL: +603-62629219,other
1,174,574,388,574,388,597,174,597,* GUEST CHECK *,other
1,60,640,284,640,284,663,60,663,TABLE NO: D06,other
1,58,706,174,706,174,729,58,729,ORDER NO,other
1,217,707,315,707,315,729,217,729,: 11649,other
1,57,739,116,739,116,761,57,761,DATE,other
1,203,740,518,740,518,765,203,765,: 30/03/2018 # 8:13 PM,date
1,75,1560,490,1560,490,1584,75,1584,GOODS SOLD ARE NON REFUNDABLE,other
1,57,772,157,772,157,795,57,795,CASHIER,other
1,204,772,389,772,389,795,204,795,: ORDER LOGIN,other
1,57,806,144,806,144,827,57,827,WAITER,other
1,203,806,387,806,387,834,203,834,: HARRY\\PAING,other
1,57,838,145,838,145,860,57,860,PRN ON,other
1,202,838,502,838,502,863,202,863,: 30/03/2018 11:18 PM,date
1,58,904,174,904,174,928,58,928,QTY ITEM,other
1,484,906,516,906,516,929,484,929,RM,other
1,174,971,389,971,389,995,174,995,*** DINE IN ***,other
1,59,1004,73,1004,73,1027,59,1027,1,other
1,100,1004,517,1004,517,1031,100,1031,TIGER 2 BUCKET - HH 95.00 SR,other
1,100,1037,374,1037,374,1065,100,1065,2 TIGER BUCKET- HH,other
1,60,1071,71,1071,71,1092,60,1092,1,other
1,99,1070,287,1070,287,1098,99,1098,CHICKEN WINGS,other
1,399,1071,516,1071,516,1095,399,1095,22.00 SR,other
1,60,1104,72,1104,72,1125,60,1125,1,other
1,100,1102,272,1102,272,1126,100,1126,FRENCH FRIES,other
1,402,1104,517,1104,517,1128,402,1128,12.00 SR,other
1,60,1136,73,1136,73,1159,60,1159,1,other
1,101,1135,331,1135,331,1164,101,1164,TIGER BUCKET- HH,other
1,401,1136,517,1136,517,1160,401,1160,50.00 SR,other
1,60,1202,75,1202,75,1224,60,1224,4,other
1,100,1202,217,1202,217,1226,100,1226,SUBTOTAL,other
1,388,1204,473,1204,473,1225,388,1225,179.00,other
1,102,1235,214,1235,214,1258,102,1258,GST @6%:,other
1,403,1235,473,1235,473,1258,403,1258,10.74,other
1,100,1268,271,1268,271,1296,100,1296,ROUNDING ADJ,other
1,416,1269,471,1269,471,1292,416,1292,0.01,other
1,99,1301,231,1301,231,1325,99,1325,NET TOTAL,other
1,388,1301,473,1301,473,1324,388,1324,189.75,total
1,61,1366,517,1366,517,1389,61,1389,- *** 30/03/2018 11:11 PM *** --,date
1,59,1428,218,1428,218,1456,59,1456,TAX SUMMARY,other
1,287,1429,375,1429,375,1453,287,1453,AMOUNT,other
1,473,1430,518,1430,518,1455,473,1455,TAX,other
1,59,1461,204,1461,204,1484,59,1484,SR:GST @6%,other
1,289,1461,376,1461,376,1484,289,1484,179.00,other
1,445,1462,517,1462,517,1485,445,1485,10.74,other
1,88,1527,490,1527,490,1552,88,1552,THANK YOU\\ PLEASE COME AGAIN,other
