1,55,77,503,77,503,104,55,104,GERPANG ALAF RESTAURANTS SDN BHD,other
1,209,104,334,104,334,137,209,137,(65351-M),other
1,145,139,388,139,388,172,145,172,FORMERLY KNOWN AS,other
1,46,169,498,169,498,200,46,200,SOLDEN ARCHES RESTAURENTS SNN BHD,other
1,125,208,441,208,441,241,125,241,LICENSEE OF MCDONALD'S,other
1,21,240,555,240,555,268,21,268,LEVEL 6\\ BANGUNAN TH\\ DAMANSARA UPTOWN3,address
1,16,273,544,273,544,298,16,298,NO.3\\ JALAN SS21/39\\  47400 PETALING JAYA,address
1,218,305,335,305,335,335,218,335,SELANGOR,other
1,118,335,449,335,449,366,118,366,(GST ID NO: 000504664064),other
1,98,368,448,368,448,401,98,401,MCDONALD'S RAWANG DT(#188),other
1,138,400,448,400,448,428,138,428,TEL NO. 03-6092-1968,other
1,210,437,358,437,358,463,210,463,TAX INVOICE,other
1,202,500,367,500,367,530,202,530,MFY SIDE 1,other
1,21,559,297,559,297,598,21,598,INV# 001881904569068,other
1,16,597,400,597,400,628,16,628,ORD #15 -REG #19- 02/03/2018,date
1,408,594,525,594,525,625,408,625,12:59:16,other
1,22,624,138,624,138,660,22,660,QTY ITEM,other
1,467,626,541,626,541,663,467,663,TOTAL,other
1,47,664,231,664,231,692,47,692,1 L MCCHICKEN,other
1,473,666,549,666,549,690,473,690,11.10,other
1,71,703,188,703,188,725,71,725,1 L COKE,other
1,77,726,202,726,202,763,77,763,1 L FRIES,other
1,50,761,198,761,198,795,50,795,1 6NUGGETS,other
1,480,755,559,755,559,794,480,794,7.50,other
1,77,795,310,795,310,826,77,826,1 BARBECUE SAUCE,other
1,46,821,264,821,264,860,46,860,1 AYAMGORENG(TA),other
1,479,826,543,826,543,862,479,862,9.90,other
1,21,892,352,892,352,926,21,926,TAKEOUT TOTAL (INCL GST),other
1,467,889,552,889,552,925,467,925,28.50,total
1,25,930,209,930,209,955,25,955,TOTAL ROUNDED,other
1,470,927,550,927,550,958,470,958,28.50,total
1,19,958,213,958,213,989,19,989,CASH TENDERED,other
1,471,955,539,955,539,991,471,991,50.00,other
1,19,993,68,993,68,1027,19,1027,CHANGE,other
1,466,992,549,992,549,1025,466,1025,21.50,other
1,1,1056,311,1056,311,1093,1,1093,TOTAL INCLUDES 6% GST,other
1,486,1051,545,1051,545,1091,486,1091,1.61,other
1,63,1156,484,1156,484,1187,63,1187,THANK YOU AND PLEASE COME AGAIN.,other
