1,1957,879,2383,879,2383,938,1957,938,TAX INVOICE,other
1,1913,962,2442,962,2442,1026,1913,1026,DOMINO'S PIZZA,company
1,1678,1072,2682,1072,2682,1140,1678,1140,GST REF NO : 001694261248,other
1,1643,1171,2695,1171,2695,1237,1643,1237,DOMINO'S PIZZA PERMAS JAYA,company
1,1619,1263,2735,1263,2735,1338,1619,1338,NO.12\\ JALAN PERMAS JAYA 10,address
1,1467,1362,2902,1362,2902,1441,1467,1441,BANDAR BARU PERMAS JAYA\\ 81750 MASAI,address
1,2076,1467,2287,1467,2287,1524,2076,1524,JOHOR,other
1,1432,1716,1966,1716,1966,1782,1432,1782,CARRY OUT NOW,other
1,2331,1707,2819,1707,2819,1779,2331,1779,PAY BY: CASH,other
1,1436,1960,1636,1960,1636,2030,1436,2030,ORDER,other
1,1865,1953,2076,1953,2076,2021,1865,2021,: 7163,other
1,2331,1951,2423,1951,2423,2023,2331,2023,BY,other
1,2542,1949,2749,1949,2749,2013,2542,2013,: 5533,other
1,1432,2052,2238,2052,2238,2122,1432,2122,ORDER TIME : 17:57:32,other
1,2324,2052,2500,2052,2500,2116,2324,2116,DATE,other
1,1428,2203,1927,2203,1927,2271,1428,2271,NAME: MS LEE,other
1,1443,2302,2289,2302,2289,2374,1443,2374,PICKUP TIME: 18:12:32,other
1,1432,2480,1559,2480,1559,2548,1432,2548,QTY,other
1,1593,2476,1764,2476,1764,2538,1593,2538,MENU,other
1,1885,2476,2063,2476,2063,2535,1885,2535,DESO,other
1,2138,2471,2384,2471,2384,2539,2138,2539,COUPON,other
1,2469,2465,2646,2465,2646,2525,2469,2525,DISC,other
1,2748,2460,2963,2460,2963,2530,2748,2530,PRICE,other
1,1461,2616,1507,2616,1507,2680,1461,2680,1,other
1,1597,2614,1764,2614,1764,2676,1597,2676,6"HT,other
1,1854,2614,1995,2614,1995,2682,1854,2682,(KB),other
1,2135,2610,2451,2610,2451,2672,2135,2672,P50C-PSI,other
1,2739,2608,2937,2608,2937,2667,2739,2667,15.60,other
1,2518,2786,2687,2786,2687,2843,2518,2843,8.40,other
1,2733,2783,2933,2783,2933,2845,2733,2845,15.60,other
1,1435,2909,1879,2909,1879,2979,1435,2979,TOTAL ITEMS,other
1,2289,2915,2324,2915,2324,2966,2289,2966,:,other
1,1432,3032,1799,3032,1799,3096,1432,3096,SUB-TOTAL,other
1,2291,3034,2324,3034,2324,3087,2291,3087,:,other
1,2575,3021,2786,3021,2786,3080,2575,3080,15.60,other
1,1428,3152,2039,3152,2039,3220,1428,3220,COUPON DISCOUNT,other
1,2296,3155,2325,3155,2325,3199,2296,3199,:,other
1,2612,3137,2783,3137,2783,3201,2612,3201,8.40,other
1,1430,3264,1876,3264,1876,3330,1430,3330,GRAND TOTAL,other
1,2287,3267,2320,3267,2320,3311,2287,3311,:,other
1,2616,3254,2785,3254,2785,3316,2616,3316,7.20,total
1,1432,3388,1720,3388,1720,3460,1432,3460,PAYMENT,other
1,2291,3390,2326,3390,2326,3441,2291,3441,:,other
1,2579,3372,2779,3372,2779,3436,2579,3436,10.00,other
1,1432,3497,1838,3497,1838,3572,1432,3572,CHANGE DUE,other
1,2298,3506,2324,3506,2324,3552,2298,3552,:,other
1,2575,3491,2784,3491,2784,3550,2575,3550,02.80,other
1,1432,3614,2084,3614,2084,3682,1432,3682,*6% GST INCLUDED,other
1,2289,3623,2324,3623,2324,3667,2289,3667,:,other
1,2610,3612,2781,3612,2781,3669,2610,3669,0.41,other
1,1580,3796,2773,3796,2773,3875,1580,3875,SUPPORT OUR SMILE CAMPAIGN : ),other
1,1777,3928,2579,3928,2579,3996,1777,3996,DID WE SMILE AT YOU?,other
1,1896,4025,2465,4025,2465,4087,1896,4087,LET US KNOW AT,other
1,1661,4119,2694,4119,2694,4185,1661,4185,WWW.DOMINOS.COM.MY/SMILE AND,other
1,1476,4220,2915,4220,2915,4290,1476,4290,RECEIVE A 30% OFF SIDE ITEM E-COUPON,other
1,1735,4315,2623,4315,2623,4394,1735,4394,UPON SURVEY SUBMISSION,other
1,1621,4416,2744,4416,2744,4488,1621,4488,SURVEY CODE: CBD271560716357,other
1,1481,4562,2770,4562,2770,4637,1481,4637,THANK YOU FOR VISITING DOMINO'S.,other
1,1771,4653,2487,4653,2487,4723,1771,4723,PLEASE COME AGAIN!,other
1,1624,4763,2672,4763,2672,4837,1624,4837,1 - 3 0 0 - 8 8 8 - 3 3 3,other
1,1768,4857,2495,4857,2495,4929,1768,4929,WWW.DOMINOS.COM.MY,other
1,1442,5021,2806,5021,2806,5100,1442,5100,WE ARE COMPLIANT TO THE PDPA 2010.,other
1,1511,5105,2762,5105,2762,5184,1511,5184,VISIT WWW.DOMINOS.COM.MY/TERMS,other
1,1630,5200,2634,5200,2634,5270,1630,5270,TO VIEW OUR PERSONAL DATA,other
1,1766,5281,2482,5281,2482,5349,1766,5349,PROTECTION POLICY.,other
1,1962,5413,2294,5413,2294,5483,1962,5483,OWNED BY,other
1,1556,5499,2713,5499,2713,5567,1556,5567,DOMMAL FOOD SERVICES SDN BHD,other
1,1806,5591,2454,5591,2454,5653,1806,5653,CO. NO. 419060-A,other
1,2869,5584,2920,5584,2920,5643,2869,5643,1,other
1,2544,2045,2904,2045,2904,2113,2544,2113,: 27/04/18,date
