1,184,334,698,334,698,375,184,375,MR. D.I.Y. (KUCHAI) SDN BHD,other
1,120,381,762,381,762,429,120,429,LOT 1851-A & 1851-B\\ JALAN KPB 6,address
1,141,433,733,433,733,481,141,481,KAWASAN PERINDUSTRIAN BALAKONG,address
1,163,486,737,486,737,525,163,525,43300 SERI KEMBANGAN\\ SELANGOR,address
1,201,535,684,535,684,581,201,581,(GST ID NO :000473792512),other
1,357,586,525,586,525,631,357,631,(SG WANG),other
1,72,683,550,683,550,726,72,726,HANDPHONE STICKER WNY-037,other
1,73,740,342,740,342,775,73,775,RC21 - 25/1000,other
1,71,788,210,788,210,827,71,827,9086926,other
1,68,841,393,841,393,878,68,878,DECO STICKER 128,other
1,71,892,344,892,344,929,71,929,QF12 - 20/1000,other
1,72,943,208,943,208,982,72,982,9011434,other
1,73,1042,286,1042,286,1088,73,1088,ITEM(S) : 2,other
1,485,790,547,790,547,828,485,828,4 X,other
1,484,943,546,943,546,982,484,982,1 X,other
1,786,687,827,687,827,725,786,725,*S,other
1,787,841,829,841,829,878,787,878,*S,other
1,635,1044,827,1044,827,1085,635,1085,QTY(S) : 5,other
1,70,1141,420,1141,420,1180,70,1180,TOTAL INCL. GST@6%,other
1,64,1191,161,1191,161,1228,64,1228,CASH,other
1,68,1290,546,1290,546,1329,68,1329,GST @6% INCLUDED IN TOTAL,other
1,673,1142,841,1142,841,1183,673,1183,RM 13.30,total
1,672,1193,830,1193,830,1229,672,1229,RM 13.30,total
1,638,1290,775,1290,775,1329,638,1329,RM 0.75,other
1,75,1392,531,1392,531,1435,75,1435,07-06-16 15:26 SH08 B019,date
1,576,1392,833,1392,833,1433,576,1433,T3 R000041542,other
1,68,1445,586,1445,586,1484,68,1484,OPERATOR SGWT - SITI AMINAH,other
1,185,1541,705,1541,705,1589,185,1589,EXCHANGE ARE ALLOWED WITHIN,other
1,255,1591,620,1591,620,1637,255,1637,3 DAY WITH RECEIPT.,other
1,224,1638,676,1638,676,1686,224,1686,STRICTLY NO CASH REFUND.,other
1,577,789,658,789,658,827,577,827,2.80,other
1,689,789,792,789,792,828,689,828,11.20,other
1,577,941,659,941,659,980,577,980,2.10,other
1,705,941,793,941,793,980,705,980,2.10,other
