1,208,224,485,224,485,257,208,257,RESTORAN WAN SHENG,company
1,254,265,421,265,421,295,254,295,002043319-W,other
1,132,298,557,298,557,334,132,334,NO.2\\ JALAN TEMENGGUNG 19/9,address
1,102,337,599,337,599,373,102,373,SEKSYEN 9\\ BANDAR MAHKOTA CHERAS,address
1,174,373,516,373,516,407,174,407,43200 CHERAS\\ SELANGOR,address
1,165,409,525,409,525,442,165,442,GST REG NO: 001335787520,other
1,166,484,492,484,492,518,166,518,TAX INVOICE,other
1,45,556,286,556,286,586,45,586,INV NO. : 1159923,other
1,308,556,551,556,551,589,308,589,CASHIER: THANDAR,other
1,43,592,108,592,108,622,43,622,DATE,other
1,153,592,467,592,467,627,153,627,: 26-05-2018 15:16:13,date
1,41,667,217,667,217,699,41,699,DESCRIPTION,other
1,269,666,316,666,316,700,269,700,QTY,other
1,373,666,481,666,481,701,373,701,U.PRICE,other
1,506,667,584,667,584,698,506,698,TOTAL,other
1,598,668,648,668,648,698,598,698,TAX,other
1,45,736,150,736,150,771,45,771,TEH (B),other
1,254,773,302,773,302,803,254,803,2 X,other
1,386,771,451,771,451,807,386,807,2.20,other
1,521,772,586,772,586,805,521,805,4.40,other
1,614,776,646,776,646,806,614,806,SR,other
1,42,808,180,808,180,842,42,842,TAKE AWAY,other
1,250,844,302,844,302,874,250,874,2 X,other
1,387,846,449,846,449,875,387,875,0.20,other
1,523,848,585,848,585,876,523,876,0.40,other
1,615,847,645,847,645,877,615,877,SR,other
1,42,915,226,915,226,946,42,946,TOTAL QTY: 4,other
1,42,949,375,949,375,986,42,986,TOTAL (EXCLUDING GST):,other
1,584,955,646,955,646,984,584,984,4.54,other
1,42,988,298,988,298,1020,42,1020,GST PAYABLE (6%):,other
1,582,991,647,991,647,1017,582,1017,0.26,other
1,41,1022,418,1022,418,1054,41,1054,TOTAL (INCLUSIVE OF GST):,other
1,582,1025,645,1025,645,1055,582,1055,4.80,total
1,44,1059,218,1059,218,1091,44,1091,TOTAL :,other
1,521,1059,646,1059,646,1093,521,1093,4.80,total
1,42,1133,132,1133,132,1163,42,1163,CASH :,other
1,582,1132,644,1132,644,1163,582,1163,4.80,total
1,42,1237,210,1237,210,1271,42,1271,GST SUMMARY,other
1,342,1240,493,1240,493,1273,342,1273,AMOUNT(RM),other
1,538,1239,642,1239,642,1273,538,1273,TAX(RM),other
1,44,1276,77,1276,77,1303,44,1303,SR,other
1,195,1274,283,1274,283,1309,195,1309,(@ 6%),other
1,434,1277,496,1277,496,1307,434,1307,4.54,other
1,584,1277,645,1277,645,1307,584,1307,0.26,other
