1,156,430,648,430,648,474,156,474,99 SPEED MART S/B (519537-X),company
1,173,483,645,483,645,527,173,527,LOP P.T. 2811\\ JALAN ANGSA,address
1,280,534,527,534,527,574,280,574,TAMAN BERKELEY,other
1,224,588,602,588,602,630,224,630,41150 KLANG\\ SELANGOR,other
1,210,637,600,637,600,675,210,675,1237-TMN INDAH PERDANA,other
1,187,686,637,686,637,723,187,723,GST ID. NO : 000181747712,other
1,170,737,672,737,672,775,170,775,INVOICE NO : 18418/102/T0262,other
1,66,835,192,835,192,877,66,877,05:38PM,other
1,367,835,475,835,475,877,367,877,568268,other
1,632,838,774,838,774,875,632,875,04-06-18,date
1,66,938,547,938,547,978,66,978,620 CARNATION SUSU KRIMER S,other
1,632,938,775,938,775,975,632,975,RM5.00 Z,other
1,100,985,317,985,317,1025,100,1025,@2 X RM 2.50,other
1,66,1034,545,1034,545,1078,66,1078,0715 KNORR CHICKEN STOCK 1K,other
1,614,1034,775,1034,775,1072,614,1072,RM15.90 Z,other
1,350,1136,598,1136,598,1174,350,1174,TOTAL SALES RM,other
1,653,1134,740,1134,740,1174,653,1174,20.90,total
1,476,1188,602,1188,602,1228,476,1228,CASH RM,other
1,649,1185,742,1185,742,1223,649,1223,21.00,other
1,434,1236,604,1236,604,1276,434,1276,CHANGE RM,other
1,688,1234,742,1234,742,1276,688,1276,.10,other
1,65,1339,264,1339,264,1381,65,1381,GST SUMMARY,other
1,352,1337,525,1337,525,1374,352,1374,AMOUNT(RM),other
1,633,1335,755,1335,755,1379,633,1379,TAX(RM),other
1,65,1389,173,1389,173,1427,65,1427,Z = 0%,other
1,434,1388,527,1388,527,1425,434,1425,20.90,total
1,702,1384,758,1384,758,1424,702,1424,.00,other
1,154,1538,658,1538,658,1583,154,1583,THANK YOU. PLEASE COME AGAIN,other
1,65,1585,758,1585,758,1632,65,1632,KEEP THE INVOICE FOR APPLICABLE RETURNS,other
