1,151,339,712,339,712,382,151,382,MR. D.I.Y. (KUCHAI) SDN BHD,other
1,241,382,629,382,629,422,241,422,(CO REG : 750441-W),other
1,95,425,776,425,776,465,95,465,LOT 1851-A & 1851-B\\ JALAN KPB 6,address
1,112,471,751,471,751,507,112,507,KAWASAN PERINDUSTRIAN BALAKONG,address
1,136,510,764,510,764,550,136,550,43300 SERI KEMBANGAN\\ SELANGOR,address
1,178,550,695,550,695,592,178,592,(GST ID NO :000473792512),other
1,362,592,526,592,526,634,362,634,(KEPONG),other
1,276,635,590,635,590,678,276,678,- TAX INVOICE -,other
1,33,719,505,719,505,759,33,759,CYLINDRICAL LOCK 3871SS,other
1,814,722,860,722,860,756,814,756,*S,other
1,33,764,322,764,322,797,33,797,GA06-07 - 6/24,other
1,30,806,304,806,304,843,30,843,6942131718178,other
1,484,804,672,804,672,841,484,841,1 X 17.45,total
1,719,806,817,806,817,838,719,838,17.45,total
1,30,887,257,887,257,921,30,921,ITEM(S) : 1,other
1,645,893,860,893,860,926,645,926,QTY(S) : 1,other
1,34,969,338,969,338,1014,34,1014,TOTAL INCL. GST,other
1,691,972,859,972,859,1008,691,1008,RM 17.45,total
1,33,1015,116,1015,116,1051,33,1051,CASH,other
1,694,1018,862,1018,862,1052,694,1052,RM 50.00,other
1,30,1057,158,1057,158,1093,30,1093,CHANGE,other
1,694,1057,858,1057,858,1091,694,1091,RM 32.55,other
1,29,1136,262,1136,262,1176,29,1176,GST SUMMARY,other
1,402,1140,547,1140,547,1179,402,1179,AMT(RM),other
1,615,1137,754,1137,754,1179,615,1179,TAX(RM),other
1,30,1185,222,1185,222,1218,30,1218,GST SR@0%,other
1,484,1179,595,1179,595,1222,484,1222,17.45,total
1,711,1180,796,1180,796,1216,711,1216,0.00,other
1,30,1305,534,1305,534,1342,30,1342,25-06-18 11:25 SH01 B003,date
1,593,1305,860,1305,860,1342,593,1342,T1 R000637565,other
1,27,1348,634,1348,634,1381,27,1381,OPERATOR KPOT - SHAHRUL NIZAM,other
1,157,1432,723,1432,723,1469,157,1469,EXCHANGE ARE ALLOWED WITHIN,other
1,233,1469,661,1469,661,1515,233,1515,7 DAYS WITH RECEIPT.,other
1,202,1514,692,1514,692,1553,202,1553,STRICTLY NO CASH REFUND.,other
