1,159,256,758,256,758,299,159,299,KEDAI PAPAN YEW CHUAN,company
1,331,304,584,304,584,335,331,335,(0005583085-K),other
1,253,352,660,352,660,385,253,385,LOT 276 JALAN BANTING,other
1,227,399,689,399,689,434,227,434,43800 DENGKIL\\ SELANGOR,address
1,139,472,435,472,435,508,139,508,TEL : 03-87686092,other
1,475,477,779,477,779,508,475,508,FAX : 03-87686092,other
1,271,523,643,523,643,558,271,558,GST ID : 000781500416,other
1,338,581,578,581,578,617,338,617,TAX INVOICE,other
1,40,624,153,624,153,657,40,657,BILL TO :,other
1,41,676,553,676,553,708,41,708,SUCI ALAM JAYA TRANSPORT,other
1,41,719,375,719,375,753,41,753,NO 1 JALAN AMAN 2,other
1,37,762,368,762,368,796,37,796,TAMAN DESA 43800,other
1,41,811,392,811,392,846,41,846,DENGKIL SELANGOR,address
1,39,858,247,858,247,893,39,893,017-6057770,other
1,41,904,168,904,168,935,41,935,DOC NO.,other
1,254,909,261,909,261,938,254,938,:,other
1,281,905,486,905,486,937,281,937,CS00012013,other
1,598,906,875,906,875,938,598,938,DATE: 20/04/2018,date
1,39,951,162,951,162,986,39,986,CASHIER,other
1,251,956,266,956,266,987,251,987,:,other
1,282,953,380,953,380,984,282,984,USER,other
1,595,956,835,956,835,991,595,991,TIME: 16:03:00,other
1,39,1003,233,1003,233,1038,39,1038,SALESPERSON,other
1,251,1008,265,1008,265,1037,251,1037,:,other
1,604,1006,682,1006,682,1040,604,1040,REF.:,other
1,39,1106,101,1106,101,1137,39,1137,ITEM,other
1,280,1110,335,1110,335,1144,280,1144,QTY,other
1,383,1111,484,1111,484,1138,383,1138,S/PRICE,other
1,521,1074,611,1074,611,1109,521,1109,(GST),other
1,694,1077,785,1077,785,1107,694,1107,(GST),other
1,515,1108,621,1108,621,1139,515,1139,S/PRICE,other
1,670,1110,782,1110,782,1140,670,1140,AMOUNT,other
1,824,1113,880,1113,880,1145,824,1145,TAX,other
1,39,1151,141,1151,141,1180,39,1180,101756,other
1,42,1193,136,1193,136,1224,42,1224,SIMEN,other
1,300,1150,319,1150,319,1182,300,1182,5,other
1,398,1150,475,1150,475,1182,398,1182,16.50,other
1,531,1154,607,1154,607,1184,531,1184,17.49,other
1,704,1155,786,1155,786,1185,704,1185,87.45,total
1,840,1154,881,1154,881,1185,840,1185,SR,other
1,80,1244,229,1244,229,1284,80,1284,TOTAL QTY:,other
1,296,1248,321,1248,321,1275,296,1275,5,other
1,697,1248,789,1248,789,1283,697,1283,87.45,total
1,158,1323,581,1323,581,1363,158,1363,TOTAL SALES (EXCLUDING GST),other
1,599,1331,616,1331,616,1360,599,1360,:,other
1,699,1326,789,1326,789,1362,699,1362,82.50,other
1,449,1385,587,1385,587,1416,449,1416,DISCOUNT,other
1,602,1386,613,1386,613,1413,602,1413,:,other
1,714,1389,790,1389,790,1419,714,1419,0.00,other
1,429,1440,583,1440,583,1474,429,1474,TOTAL GST,other
1,600,1447,614,1447,614,1473,600,1473,:,other
1,717,1445,788,1445,788,1476,717,1476,4.95,other
1,439,1499,581,1499,581,1539,439,1539,ROUNDING,other
1,600,1503,615,1503,615,1530,600,1530,:,other
1,719,1503,789,1503,789,1530,719,1530,0.00,other
1,92,1554,588,1554,588,1599,92,1599,TOTAL SALES (INCLUSIVE OF GST),other
1,603,1561,615,1561,615,1591,603,1591,:,other
1,696,1560,790,1560,790,1592,696,1592,87.45,total
1,481,1614,583,1614,583,1646,481,1646,CASH,other
1,600,1622,615,1622,615,1647,600,1647,:,other
1,701,1615,788,1615,788,1650,701,1650,87.45,total
1,448,1662,581,1662,581,1702,448,1702,CHANGE,other
1,599,1665,614,1665,614,1692,599,1692,:,other
1,717,1665,785,1665,785,1697,717,1697,0.00,other
1,98,1762,362,1762,362,1797,98,1797,GST SUMMARY,other
1,104,1814,259,1814,259,1849,104,1849,TAX CODE,other
1,104,1860,152,1860,152,1890,104,1890,SR,other
1,353,1815,383,1815,383,1850,353,1850,%,other
1,353,1863,378,1863,378,1890,353,1890,6,other
1,470,1819,624,1819,624,1850,470,1850,AMT (RM),other
1,535,1865,625,1865,625,1895,535,1895,82.50,other
1,694,1819,843,1819,843,1853,694,1853,TAX (RM),other
1,774,1865,842,1865,842,1892,774,1892,4.95,other
1,297,1909,403,1909,403,1940,297,1940,TOTAL :,other
1,531,1909,619,1909,619,1943,531,1943,82.50,other
1,776,1914,843,1914,843,1944,776,1944,4.95,other
1,91,1993,813,1993,813,2030,91,2030,GOODS SOLD ARE NOT RETURNABLE\\ THANK YOU,other
