1,159,283,754,283,754,328,159,328,KEDAI PAPAN YEW CHUAN,company
1,333,329,584,329,584,366,333,366,(0005583085-K),other
1,252,376,661,376,661,411,252,411,LOT 276 JALAN BANTING,other
1,227,423,692,423,692,460,227,460,43800 DENGKIL\\ SELANGOR.,address
1,141,498,435,498,435,532,141,532,TEL : 03-87686092,other
1,478,500,773,500,773,537,478,537,FAX : 03-87686092,other
1,269,548,644,548,644,585,269,585,GST ID : 000781500416,other
1,336,606,573,606,573,644,336,644,TAX INVOICE,other
1,40,651,149,651,149,681,40,681,BILL TO :,other
1,41,701,550,701,550,735,41,735,SUCI ALAM JAYA TRANSPORT,other
1,41,746,373,746,373,779,41,779,NO 1 JALAN AMAN 2,other
1,39,788,365,788,365,821,39,821,TAMAN DESA 43800,other
1,42,836,389,836,389,869,42,869,DENGKIL SELANGOR,address
1,40,884,246,884,246,918,40,918,017-6057770,other
1,42,930,163,930,163,960,42,960,DOC NO.,other
1,252,935,264,935,264,962,252,962,:,other
1,282,932,485,932,485,966,282,966,CS00012330,other
1,598,931,873,931,873,967,598,967,DATE: 30/04/2018,date
1,40,982,162,982,162,1014,40,1014,CASHIER,other
1,250,985,264,985,264,1011,250,1011,:,other
1,281,981,377,981,377,1013,281,1013,USER,other
1,594,985,833,985,833,1017,594,1017,TIME: 13:01:00,other
1,40,1030,231,1030,231,1067,40,1067,SALESPERSON,other
1,252,1039,262,1039,262,1063,252,1063,:,other
1,602,1033,681,1033,681,1065,602,1065,REF.:,other
1,37,1137,101,1137,101,1165,37,1165,ITEM,other
1,280,1140,335,1140,335,1171,280,1171,QTY,other
1,382,1140,480,1140,480,1167,382,1167,S/PRICE,other
1,522,1105,606,1105,606,1136,522,1136,(GST),other
1,698,1107,781,1107,781,1139,698,1139,(GST),other
1,515,1140,614,1140,614,1166,515,1166,S/PRICE,other
1,669,1141,780,1141,780,1167,669,1167,AMOUNT,other
1,826,1143,877,1143,877,1170,826,1170,TAX,other
1,75,1179,140,1179,140,1204,75,1204,0139,other
1,40,1224,256,1224,256,1260,40,1260,BESI Y 10 (CQ),other
1,299,1181,316,1181,316,1205,299,1205,6,other
1,398,1179,470,1179,470,1206,398,1206,17.00,other
1,528,1182,602,1182,602,1208,528,1208,18.02,other
1,695,1185,782,1185,782,1210,695,1210,108.12,other
1,839,1184,878,1184,878,1210,839,1210,SR,other
1,42,1279,140,1279,140,1307,42,1307,100135,other
1,41,1325,262,1325,262,1358,41,1358,BESI R 5.5 (CQ),other
1,297,1280,317,1280,317,1306,297,1306,4,other
1,405,1279,463,1279,463,1308,405,1308,8.00,other
1,535,1283,596,1283,596,1308,535,1308,8.48,other
1,707,1282,784,1282,784,1311,707,1311,33.92,other
1,840,1286,879,1286,879,1311,840,1311,SR,other
1,42,1379,138,1379,138,1408,42,1408,101756,other
1,37,1425,136,1425,136,1454,37,1454,SIMEN,other
1,291,1379,322,1379,322,1408,291,1408,15,other
1,398,1382,471,1382,471,1410,398,1410,16.50,other
1,531,1383,602,1383,602,1409,531,1409,17.49,other
1,689,1383,782,1383,782,1410,689,1410,262.35,other
1,837,1384,879,1384,879,1410,837,1410,SR,other
1,81,1471,225,1471,225,1511,81,1511,TOTAL QTY:,other
1,287,1476,329,1476,329,1504,287,1504,25,other
1,681,1478,785,1478,785,1509,681,1509,404.39,total
1,159,1551,577,1551,577,1593,159,1593,TOTAL SALES (EXCLUDING GST),other
1,600,1561,611,1561,611,1585,600,1585,:,other
1,680,1557,785,1557,785,1587,680,1587,381.50,other
1,447,1611,583,1611,583,1645,447,1645,DISCOUNT,other
1,602,1620,612,1620,612,1644,602,1644,:,other
1,717,1616,787,1616,787,1646,717,1646,0.00,other
1,425,1668,579,1668,579,1700,425,1700,TOTAL GST,other
1,602,1678,612,1678,612,1703,602,1703,:,other
1,697,1669,790,1669,790,1702,697,1702,22.89,other
1,439,1726,579,1726,579,1766,439,1766,ROUNDING,other
1,600,1732,614,1732,614,1759,600,1759,:,other
1,718,1731,786,1731,786,1759,718,1759,0.00,other
1,96,1783,583,1783,583,1822,96,1822,TOTAL SALES (INCLUSIVE OF GST),other
1,603,1795,612,1795,612,1817,603,1817,:,other
1,680,1791,785,1791,785,1818,680,1818,404.39,total
1,483,1844,580,1844,580,1876,483,1876,CASH,other
1,601,1853,613,1853,613,1879,601,1879,:,other
1,678,1846,788,1846,788,1880,678,1880,404.39,total
1,449,1890,579,1890,579,1929,449,1929,CHANGE,other
1,601,1896,613,1896,613,1922,601,1922,:,other
1,716,1891,789,1891,789,1920,716,1920,0.00,other
1,97,1991,356,1991,356,2021,97,2021,GST SUMMARY,other
1,104,2046,258,2046,258,2077,104,2077,TAX CODE,other
1,351,2046,382,2046,382,2079,351,2079,%,other
1,470,2046,619,2046,619,2083,470,2083,AMT (RM),other
1,694,2049,842,2049,842,2083,694,2083,TAX (RM),other
1,105,2092,156,2092,156,2119,105,2119,SR,other
1,357,2091,378,2091,378,2121,357,2121,6,other
1,513,2093,621,2093,621,2122,513,2122,381.50,other
1,753,2096,841,2096,841,2127,753,2127,22.89,other
1,296,2138,402,2138,402,2173,296,2173,TOTAL :,other
1,510,2141,618,2141,618,2173,510,2173,381.50,other
1,754,2146,841,2146,841,2172,754,2172,22.89,other
1,92,2223,820,2223,820,2257,92,2257,GOODS SOLD ARE NOT RETURNABLE\\ THANK YOU.,other
