1,192,221,697,221,697,256,192,256,PASAR RAYA MEGA MAJU,address
1,222,266,670,266,670,303,222,303,(SEMENYIH) SDN BHD,address
1,343,315,545,315,545,354,343,354,(767840-W),address
1,309,364,577,364,577,403,309,403,NO 24\\ 25 & 26,address
1,78,413,806,413,806,447,78,447,JALAN PUSAT PERNIAGAAN BUNGA RAYA 4,address
1,153,460,733,460,733,496,153,496,PUSAT PERNIAGAAN BUNGA RAYA,address
1,227,506,305,506,305,541,227,541,TEL:,address
1,487,506,560,506,560,537,487,537,FAX:,address
1,230,552,704,552,704,591,230,591,GST REG NO: 000746659840,address
1,61,598,222,598,222,629,61,629,INVOICE NO,address
1,255,600,439,600,439,630,255,630,: 01-283886,address
1,64,647,138,647,138,678,64,678,DATE,address
1,253,646,638,646,638,678,253,678,: 03/07/2018 5:22:43 PM,date
1,64,696,174,696,174,727,64,727,CASHIER,address
1,252,696,339,696,339,725,252,725,: SITI,address
1,332,740,577,740,577,772,332,772,TAX INVOICE,address
1,131,815,301,815,301,850,131,850,DESCRIPTION,address
1,468,817,521,817,521,849,468,849,QTY,address
1,583,816,660,816,660,844,583,844,PRICE,address
1,708,817,825,817,825,843,708,843,AMOUNT,address
1,80,861,97,861,97,891,80,891,1,address
1,76,951,94,951,94,982,76,982,2,address
1,111,860,427,860,427,888,111,888,SRO 9555544201075,address
1,105,906,554,906,554,936,105,936,PRO BALANCE 400GM - BEFF,address
1,110,951,427,951,427,980,110,980,SR0 9555544201198,address
1,104,993,543,993,543,1026,104,1026,PRO BALANCE LAMB 400GM,address
1,500,864,518,864,518,889,500,889,4,address
1,497,951,521,951,521,979,497,979,3,address
1,591,861,661,861,661,889,591,889,4.35,address
1,593,951,660,951,660,978,593,978,4.35,address
1,742,859,824,859,824,890,742,890,17.40,address
1,741,951,822,951,822,979,741,979,13.05,address
1,435,1049,521,1049,521,1075,435,1075,TOTAL:,address
1,751,1048,825,1048,825,1073,751,1073,30.45,total
1,399,1094,520,1094,520,1122,399,1122,DISCOUNT:,address
1,768,1095,827,1095,827,1123,768,1123,0.00,address
1,55,1141,518,1141,518,1173,55,1173,TOTAL SALES INCLUSIVE GST @0.00%:,address
1,750,1144,824,1144,824,1169,750,1169,30.45,total
1,305,1187,518,1187,518,1216,305,1216,CASH RECEIVED :,address
1,749,1188,824,1188,824,1216,749,1216,30.50,address
1,403,1234,520,1234,520,1265,403,1265,CHANGE :,address
1,767,1234,825,1234,825,1259,767,1259,0.05,address
1,87,1305,278,1305,278,1335,87,1335,GST SUMMARY,address
1,349,1305,376,1305,376,1331,349,1331,%,address
1,470,1304,636,1304,636,1332,470,1332,AMOUNT(RM),address
1,684,1303,799,1303,799,1332,684,1332,TAX(RM),address
1,85,1351,142,1351,142,1376,85,1376,SR0,address
1,319,1349,379,1349,379,1377,319,1377,0.00,address
1,562,1351,636,1351,636,1378,562,1378,30.45,total
1,744,1350,802,1350,802,1378,744,1378,0.00,address
1,194,1456,666,1456,666,1490,194,1490,THANK YOU. PLEASE COME AGAIN,address
1,201,1501,663,1501,663,1539,201,1539,TERIMA KASIH. SILA DATANG LAGI,address
1,103,1546,779,1546,779,1578,103,1578,GOOD SOLD ARE NOT REFUNABLE AND RETURNABLE,address
